<?xml version="1.0" encoding="utf-8"?>
<!-- Generator: Adobe Illustrator 19.1.0, SVG Export Plug-In . SVG Version: 6.00 Build 0)  -->
<svg version="1.1" id="Layer_1" xmlns="http://www.w3.org/2000/svg" xmlns:xlink="http://www.w3.org/1999/xlink" x="0px" y="0px"
	 viewBox="0 0 48 48" style="enable-background:new 0 0 48 48;" xml:space="preserve">
<style type="text/css">
	.st0{fill:#DAF1F1;}
	.st1{fill:#D6D7D9;}
</style>
<rect x="0" class="st0" width="48" height="48"/>
<g>
	<g>
		<path d="M12.3,30.3H9.2c-0.9,1.6-1.4,3.4-1.4,5.1v0.2c0,1.6,0.5,3.3,1.3,4.9h3.1c-1-1.3-1.8-2.9-1.8-4.9v-0.2
			C10.4,33.4,11.3,31.6,12.3,30.3z"/>
		<path d="M19,40.5c-1-1.3-1.8-2.9-1.8-4.9v-0.2c0-2.1,0.8-3.8,2-5.1h-3.1c-0.9,1.6-1.4,3.4-1.4,5.1v0.2c0,1.6,0.5,3.3,1.3,4.9H19z"
			/>
		<path d="M34.2,25.5H10.4C4.6,25.5,0,30,0,35.5s4.7,10,10.4,10h23.8h3.6h7.8v-2.6h-7.8h-3.6c-4.3,0-7.7-3.3-7.7-7.3
			s3.4-7.3,7.7-7.3h3.6h7.8v-2.6h-7.8H34.2z M23.8,35.5c0,2.9,1.3,5.5,3.3,7.3H10.4c-4.3,0-7.7-3.3-7.7-7.3s3.4-7.3,7.7-7.3h16.8
			C25.1,30,23.8,32.7,23.8,35.5z"/>
		<rect x="30.5" y="32.4" width="12.9" height="2.6"/>
		<rect x="30.5" y="36.4" width="12.9" height="2.6"/>
		<path d="M13.8,22.5h23.8c5.8,0,10.4-4.5,10.4-10s-4.7-10-10.4-10H13.8h-3.6H2.4v2.6h7.8h3.6c4.3,0,7.7,3.3,7.7,7.3
			s-3.4,7.3-7.7,7.3h-3.6H2.4v2.6h7.8L13.8,22.5z M24.2,12.5c0-2.9-1.3-5.5-3.3-7.3h16.8c4.3,0,7.7,3.3,7.7,7.3s-3.4,7.3-7.7,7.3
			H20.9C22.9,18,24.2,15.4,24.2,12.5z"/>
		<rect x="5.1" y="9.4" width="12.8" height="2.6"/>
		<rect x="5.1" y="13.4" width="12.8" height="2.6"/>
	</g>
</g>
</svg>
