<?xml version="1.0" encoding="utf-8"?>
<!-- Generator: Adobe Illustrator 19.1.0, SVG Export Plug-In . SVG Version: 6.00 Build 0)  -->
<svg version="1.1" id="Layer_1" xmlns="http://www.w3.org/2000/svg" xmlns:xlink="http://www.w3.org/1999/xlink" x="0px" y="0px"
	 viewBox="0 0 48 48" style="enable-background:new 0 0 48 48;" xml:space="preserve">
<style type="text/css">
	.st0{fill:#DAF1F1;}
	.st1{fill:#D6D7D9;}
</style>
<rect x="0" class="st1" width="48" height="48"/>
<g>
	<path d="M48,27.2v-1.4c0-12.1-9.3-20.6-22.7-21.2V1.4h-2.7v3.2C9.2,5.1,0,13.7,0,25.8v1.4h22.7v11.3v0.1c0,0,0.1,2.4-1.3,3.8
		c-0.9,1-2.2,1.4-4.1,1.4c0,0-1.7,0-2.7-1c-0.6-0.6-1-1.6-1-2.8H11c0,2,0.6,3.6,1.8,4.8c1.7,1.6,4,1.7,4.5,1.7c0.1,0,0.1,0,0.1,0
		c2.6,0,4.5-0.7,6-2.2c2.1-2.2,2-5.3,2-5.8V27.2H48z M17.5,8.2c-2.6,2.9-4.4,9.2-4.6,16.5H2.7C4.5,10.4,17.5,8.2,17.5,8.2z
		 M45.1,24.7H34.9c-0.2-7.3-2-13.6-4.6-16.5C30.3,8.2,43.4,10.4,45.1,24.7z M15.8,24.5c0.2-8.8,3.1-17.1,8.1-17.1
		c5.1,0,7.9,8.4,8.1,17.1H15.8z"/>
</g>
</svg>
