<?xml version="1.0" encoding="UTF-8" standalone="no"?>
<svg width="59px" height="70px" viewBox="0 0 59 70" version="1.1" xmlns="http://www.w3.org/2000/svg" xmlns:xlink="http://www.w3.org/1999/xlink">
    <!-- Generator: Sketch 3.8.3 (29802) - http://www.bohemiancoding.com/sketch -->
    <title>Icon_01_01</title>
    <desc>Created with Sketch.</desc>
    <defs></defs>
    <g id="Page-1" stroke="none" stroke-width="1" fill="none" fill-rule="evenodd">
        <g id="Artboard-1" transform="translate(0.000000, -3.000000)">
            <g id="Icon_01_01" transform="translate(0.000000, 3.000000)">
                <g id="Layer_1">
                    <g id="knowledge">
                        <g id="Group" transform="translate(11.375000, 16.625000)" fill="#44B9B9">
                            <path d="M7.56875,3.19375 C7.6125,4.9875 7.48125,6.08125 7.39375,7 L0,7 L0,0 L7.39375,0 C7.39375,0.2625 7.4375,0.7 7.48125,1.09375 C7.525,1.6625 7.56875,2.31875 7.56875,3.19375 L7.56875,3.19375 Z" id="Shape"></path>
                            <path d="M36.75,0 L36.75,7 L11.375,7 L11.24375,6.86875 C11.1125,6.65 11.06875,6.3875 11.1125,6.16875 C11.1125,6.16875 11.1125,6.16875 11.1125,6.125 C11.15625,5.8625 11.41875,4.725 11.24375,3.45625 L11.24375,3.4125 C11.24375,3.325 11.2,3.2375 11.2,3.19375 C11.2,3.15 11.2,3.10625 11.15625,3.0625 C11.1125,2.8875 11.06875,2.7125 11.025,2.49375 C10.98125,2.40625 10.9375,2.275 10.89375,2.14375 C10.89375,2.14375 10.85,2.1 10.85,2.05625 C10.80625,2.0125 10.80625,1.96875 10.7625,1.925 C10.71875,1.88125 10.71875,1.79375 10.675,1.75 C10.54375,1.53125 10.4125,1.3125 10.2375,1.09375 C10.19375,1.05 10.15,0.9625 10.0625,0.91875 L10.0625,0.875 L10.0625,0.875 C10.01875,0.83125 9.93125,0.74375 9.8875,0.7 C9.84375,0.65625 9.8,0.6125 9.75625,0.6125 C9.7125,0.56875 9.66875,0.525 9.625,0.525 C9.5375,0.48125 9.49375,0.4375 9.40625,0.35 C9.31875,0.30625 9.275,0.2625 9.1875,0.21875 C9.1,0.175 9.0125,0.13125 8.925,0.0875 C8.88125,0.0875 8.88125,0.04375 8.8375,0.04375 L10.675,0.04375 L10.675,0.35 C10.675,0.525 10.71875,0.74375 10.7625,0.91875 C10.98125,1.4875 11.55,1.88125 12.20625,1.88125 C12.38125,1.88125 12.5125,1.8375 12.6875,1.79375 C13.125,1.6625 13.475,1.3125 13.65,0.875 C13.7375,0.7 13.7375,0.525 13.7375,0.30625 L13.7375,0 L15.4875,0 L15.4875,1.925 C15.4875,2.75625 16.1875,3.45625 17.01875,3.45625 C17.89375,3.45625 18.55,2.75625 18.55,1.925 L18.55,0 L20.3,0 L20.3,2.1 C20.3,2.93125 21,3.63125 21.83125,3.63125 C22.6625,3.63125 23.3625,2.93125 23.3625,2.1 L23.3625,0 L25.1125,0 L25.1125,1.4 C25.1125,2.23125 25.8125,2.93125 26.64375,2.93125 C27.51875,2.93125 28.175,2.23125 28.175,1.4 L28.175,0 L36.75,0 L36.75,0 Z" id="Shape"></path>
                            <path d="M19.03125,15.75 C17.71875,15.75 16.625,16.84375 16.625,18.15625 L16.625,47.95 L17.5875,47.8625 C17.89375,46.50625 19.11875,45.5 20.5625,45.5 L38.54375,45.5 L46.375,44.625 L46.375,15.75 L19.03125,15.75 L19.03125,15.75 Z M23.625,23.625 L39.375,23.625 L39.375,28.875 L23.625,28.875 L23.625,23.625 L23.625,23.625 Z" id="Shape"></path>
                        </g>
                        <g id="Group" fill="#053F51">
                            <circle id="Oval" cx="14.875" cy="58.49375" r="1.09375"></circle>
                            <path d="M57.75,31.5 L42,31.5 C42,30.31875 42,29.1375 41.95625,27.9125 C41.95625,26.775 41.9125,25.6375 41.9125,24.5 L48.125,24.5 L51.625,24.5 C53.06875,24.5 54.25,23.31875 54.25,21.875 L54.25,18.375 C54.25,16.93125 53.06875,15.75 51.625,15.75 L48.125,15.75 L41.3875,15.75 L41.3875,15.6625 C41.3875,13.86875 39.9,12.38125 38.10625,12.38125 C37.49375,12.38125 36.925,12.55625 36.44375,12.81875 C36.05,11.41875 34.78125,10.4125 33.29375,10.4125 C32.375,10.4125 31.54375,10.80625 30.93125,11.375 C30.31875,10.675 29.44375,10.2375 28.4375,10.2375 C27.43125,10.2375 26.55625,10.675 25.94375,11.375 C25.33125,10.7625 24.5,10.4125 23.58125,10.4125 C21.74375,10.4125 20.3,11.9 20.3,13.69375 L20.3,14.74375 C19.425,14.4375 18.50625,14.39375 17.80625,14.91875 C17.5,15.1375 17.325,15.44375 17.19375,15.75 L11.375,15.75 L11.375,15.75 L11.24375,15.75 L11.2,15.75 C11.15625,15.75 11.15625,15.75 11.1125,15.79375 C11.06875,15.79375 11.06875,15.79375 11.025,15.8375 L11.025,15.8375 L3.325,19.25 L0.875,19.25 C0.39375,19.25 0,19.64375 0,20.125 C0,20.60625 0.39375,21 0.875,21 L3.325,21 L11.025,24.4125 L11.025,24.4125 C11.06875,24.4125 11.1125,24.45625 11.15625,24.45625 C11.24375,24.45625 11.33125,24.5 11.375,24.5 L11.375,24.5 L16.93125,24.5 C16.8875,25.24375 16.8875,25.9875 17.0625,27.125 C17.15,27.7375 17.5,29.44375 18.375,31.4125 C19.11875,33.11875 19.95,34.34375 20.3875,34.9125 C20.825,35.525 21.30625,36.09375 21.83125,36.6625 L20.125,36.6625 C19.64375,36.6625 19.25,37.05625 19.25,37.5375 L19.25,61.25 C19.25,61.73125 19.64375,62.125 20.125,62.125 C20.60625,62.125 21,61.73125 21,61.25 L21,38.4125 L27.125,38.4125 L27.125,64.575 L27.125,64.75 L27.125,65.1875 C27.125,67.85625 29.26875,70 31.9375,70 L57.75,70 C58.23125,70 58.625,69.60625 58.625,69.125 C58.625,68.64375 58.23125,68.25 57.75,68.25 L31.9375,68.25 C30.23125,68.25 28.875,66.89375 28.875,65.1875 C28.875,64.925 28.91875,64.70625 28.9625,64.4875 C29.26875,63.13125 30.49375,62.125 31.9375,62.125 L57.75,62.125 C58.23125,62.125 58.625,61.73125 58.625,61.25 L58.625,32.375 C58.625,31.89375 58.23125,31.5 57.75,31.5 L57.75,31.5 Z M52.5,18.375 L52.5,21.875 C52.5,22.35625 52.10625,22.75 51.625,22.75 L49,22.75 L49,17.5 L51.625,17.5 C52.10625,17.5 52.5,17.89375 52.5,18.375 L52.5,18.375 Z M47.25,17.5 L47.25,22.75 L41.08125,22.75 L41.0375,22.75 L40.99375,22.75 L26.03125,22.75 C25.50625,22.53125 24.9375,22.4 24.36875,22.26875 C24.45625,21.7 24.5,20.95625 24.4125,20.125 C24.7625,20.0375 25.06875,19.90625 25.33125,19.73125 C25.8125,20.95625 26.99375,21.875 28.39375,21.875 C29.3125,21.875 30.14375,21.48125 30.75625,20.9125 C31.36875,21.6125 32.24375,22.05 33.25,22.05 C34.3875,22.05 35.39375,21.48125 35.9625,20.60625 C36.53125,21.0875 37.275,21.35 38.0625,21.35 C39.85625,21.35 41.34375,19.8625 41.34375,18.06875 L41.34375,17.5 L47.25,17.5 L47.25,17.5 Z M38.0625,14.13125 C38.9375,14.13125 39.59375,14.83125 39.59375,15.6625 L39.59375,15.75 L39.59375,17.5 L39.59375,18.025 C39.59375,18.85625 38.89375,19.55625 38.0625,19.55625 C37.23125,19.55625 36.53125,18.85625 36.53125,18.025 L36.53125,17.5 L36.53125,15.75 L36.53125,15.6625 C36.53125,14.83125 37.23125,14.13125 38.0625,14.13125 L38.0625,14.13125 Z M33.25,12.1625 C34.08125,12.1625 34.78125,12.8625 34.78125,13.69375 L34.78125,15.6625 L34.78125,15.75 L34.78125,17.5 L34.78125,18.025 L34.78125,18.725 C34.78125,19.55625 34.08125,20.25625 33.25,20.25625 C32.375,20.25625 31.71875,19.55625 31.71875,18.725 L31.71875,18.55 L31.71875,17.5 L31.71875,15.75 L31.71875,13.69375 C31.675,12.8625 32.375,12.1625 33.25,12.1625 L33.25,12.1625 Z M26.8625,13.5625 C26.8625,12.73125 27.5625,12.03125 28.39375,12.03125 C29.26875,12.03125 29.925,12.73125 29.925,13.5625 L29.925,13.7375 L29.925,15.75 L29.925,17.5 L29.925,18.55 C29.925,19.38125 29.225,20.08125 28.39375,20.08125 C27.5625,20.08125 26.8625,19.38125 26.8625,18.55 L26.8625,17.5 L26.8625,16.93125 L26.8625,15.75 L26.8625,13.69375 L26.8625,13.5625 L26.8625,13.5625 Z M22.00625,13.69375 C22.00625,12.8625 22.70625,12.1625 23.5375,12.1625 C24.36875,12.1625 25.06875,12.8625 25.06875,13.69375 L25.06875,15.75 L25.06875,16.93125 C25.06875,17.10625 25.025,17.325 24.98125,17.5 C24.80625,17.9375 24.45625,18.2875 24.01875,18.41875 C23.93125,18.1125 23.75625,17.80625 23.625,17.5 C23.45,17.19375 23.275,16.8875 23.0125,16.625 C22.925,16.5375 22.8375,16.40625 22.75,16.31875 C22.575,16.1 22.35625,15.925 22.09375,15.75 C22.05,15.75 22.05,15.70625 22.05,15.70625 L22.05,13.69375 L22.00625,13.69375 L22.00625,13.69375 Z M10.5,17.98125 L10.5,22.26875 L5.64375,20.125 L10.5,17.98125 L10.5,17.98125 Z M12.25,22.75 L12.25,17.5 L17.0625,17.5 C17.0625,17.5875 17.0625,17.71875 17.10625,17.85 C17.15,18.375 17.19375,19.075 17.19375,19.90625 C17.2375,21.175 17.19375,22.05 17.10625,22.79375 L12.25,22.75 L12.25,22.75 L12.25,22.75 Z M24.36875,36.6625 C23.40625,35.83125 22.4875,34.9125 21.74375,33.90625 C21.35,33.38125 20.60625,32.2875 19.95,30.7125 C19.1625,28.91875 18.85625,27.3875 18.76875,26.81875 C18.59375,25.8125 18.59375,25.15625 18.6375,24.5 C18.68125,24.2375 18.68125,24.01875 18.725,23.7125 L18.725,23.625 C18.725,23.49375 18.76875,23.3625 18.76875,23.23125 C18.76875,23.14375 18.76875,23.05625 18.8125,22.96875 C18.8125,22.88125 18.8125,22.8375 18.85625,22.75 C18.94375,22.00625 18.9875,21.0875 18.94375,19.81875 C18.94375,18.94375 18.85625,18.24375 18.8125,17.675 L18.8125,17.45625 C18.8125,17.2375 18.76875,17.01875 18.76875,16.8 L18.76875,16.8 L18.76875,16.66875 L18.76875,16.58125 C18.76875,16.45 18.76875,16.31875 18.8125,16.275 C18.9875,16.14375 19.55625,16.23125 20.2125,16.58125 C20.25625,16.58125 20.25625,16.58125 20.3,16.625 C20.3875,16.66875 20.475,16.7125 20.5625,16.8 L20.60625,16.84375 C20.69375,16.8875 20.7375,16.93125 20.825,16.975 C20.86875,17.01875 20.9125,17.01875 20.95625,17.0625 C21,17.10625 21.04375,17.10625 21.0875,17.15 L21.13125,17.19375 C21.175,17.2375 21.21875,17.2375 21.2625,17.28125 C21.30625,17.28125 21.30625,17.325 21.35,17.36875 C21.39375,17.4125 21.4375,17.45625 21.48125,17.5 L21.525,17.54375 C21.6125,17.63125 21.65625,17.675 21.74375,17.7625 C21.7875,17.80625 21.83125,17.89375 21.875,17.9375 C21.91875,17.98125 21.91875,18.025 21.9625,18.06875 C22.00625,18.1125 22.05,18.2 22.05,18.24375 C22.09375,18.2875 22.09375,18.33125 22.1375,18.375 C22.1375,18.41875 22.18125,18.4625 22.18125,18.4625 C22.26875,18.59375 22.3125,18.76875 22.35625,18.9 C22.35625,18.94375 22.4,18.9875 22.4,19.03125 C22.4,19.075 22.44375,19.1625 22.44375,19.20625 C22.44375,19.25 22.4875,19.29375 22.4875,19.3375 C22.4875,19.38125 22.53125,19.46875 22.53125,19.5125 C22.53125,19.55625 22.53125,19.6 22.575,19.64375 L22.575,19.73125 C22.575,19.81875 22.61875,19.8625 22.61875,19.95 L22.61875,20.0375 C22.79375,21.30625 22.53125,22.44375 22.4875,22.70625 C22.4875,22.70625 22.4875,22.70625 22.4875,22.75 C22.44375,23.0125 22.4875,23.23125 22.61875,23.45 C22.6625,23.49375 22.70625,23.5375 22.75,23.58125 C22.88125,23.7125 23.05625,23.8 23.23125,23.8 C23.8875,23.8875 24.7625,24.0625 25.725,24.45625 C26.25,24.675 26.775,24.9375 27.3,25.2875 C28.9625,26.38125 29.96875,27.78125 30.45,28.7875 C30.66875,29.225 31.19375,29.4 31.63125,29.1375 C32.06875,28.91875 32.24375,28.39375 31.98125,27.95625 C31.45625,26.95 30.58125,25.6375 29.09375,24.4125 L40.1625,24.4125 C40.1625,25.55 40.1625,26.6875 40.20625,27.825 C40.20625,29.05 40.25,30.23125 40.25,31.4125 L30.40625,31.4125 C28.6125,31.4125 27.125,32.9 27.125,34.69375 L27.125,36.575 L24.36875,36.575 L24.36875,36.6625 L24.36875,36.6625 Z M28.875,61.46875 L28.875,38.4125 L28.875,36.6625 L28.875,34.78125 C28.875,33.95 29.575,33.25 30.40625,33.25 L40.11875,33.25 L41.9125,33.25 L56.875,33.25 L56.875,60.375 L31.9375,60.375 C30.75625,60.375 29.70625,60.8125 28.875,61.46875 L28.875,61.46875 Z" id="Shape"></path>
                            <path d="M57.75,63 L31.5,63 C31.01875,63 30.625,63.39375 30.625,63.875 C30.625,64.35625 31.01875,64.75 31.5,64.75 L57.75,64.75 C58.23125,64.75 58.625,64.35625 58.625,63.875 C58.625,63.39375 58.23125,63 57.75,63 L57.75,63 Z" id="Shape"></path>
                            <path d="M57.75,65.625 L31.5,65.625 C31.01875,65.625 30.625,66.01875 30.625,66.5 C30.625,66.98125 31.01875,67.375 31.5,67.375 L57.75,67.375 C58.23125,67.375 58.625,66.98125 58.625,66.5 C58.625,66.01875 58.23125,65.625 57.75,65.625 L57.75,65.625 Z" id="Shape"></path>
                            <path d="M51.625,38.5 L34.125,38.5 C33.64375,38.5 33.25,38.89375 33.25,39.375 L33.25,46.375 C33.25,46.85625 33.64375,47.25 34.125,47.25 L51.625,47.25 C52.10625,47.25 52.5,46.85625 52.5,46.375 L52.5,39.375 C52.5,38.89375 52.10625,38.5 51.625,38.5 L51.625,38.5 Z M50.75,45.5 L35,45.5 L35,40.25 L50.75,40.25 L50.75,45.5 L50.75,45.5 Z" id="Shape"></path>
                            <path d="M37.625,43.75 L43.75,43.75 C44.23125,43.75 44.625,43.35625 44.625,42.875 C44.625,42.39375 44.23125,42 43.75,42 L37.625,42 C37.14375,42 36.75,42.39375 36.75,42.875 C36.75,43.35625 37.14375,43.75 37.625,43.75 L37.625,43.75 Z" id="Shape"></path>
                            <path d="M46.375,43.75 L48.125,43.75 C48.60625,43.75 49,43.35625 49,42.875 C49,42.39375 48.60625,42 48.125,42 L46.375,42 C45.89375,42 45.5,42.39375 45.5,42.875 C45.5,43.35625 45.89375,43.75 46.375,43.75 L46.375,43.75 Z" id="Shape"></path>
                            <path d="M14.875,56.21875 C15.35625,56.21875 15.75,55.825 15.75,55.34375 L15.75,43.96875 C15.75,43.4875 15.35625,43.09375 14.875,43.09375 C14.39375,43.09375 14,43.4875 14,43.96875 L14,55.34375 C14,55.825 14.39375,56.21875 14.875,56.21875 L14.875,56.21875 Z" id="Shape"></path>
                            <path d="M29.75,4.025 C30.23125,4.025 30.625,3.63125 30.625,3.15 L30.625,1.18125 C30.625,0.7 30.23125,0.30625 29.75,0.30625 C29.26875,0.30625 28.875,0.7 28.875,1.18125 L28.875,3.15 C28.875,3.675 29.26875,4.025 29.75,4.025 L29.75,4.025 Z" id="Shape"></path>
                            <path d="M19.90625,6.0375 C20.08125,6.3 20.34375,6.475 20.65,6.475 C20.78125,6.475 20.95625,6.43125 21.0875,6.34375 C21.525,6.08125 21.65625,5.55625 21.39375,5.1625 L20.43125,3.45625 C20.16875,3.01875 19.64375,2.8875 19.25,3.15 C18.8125,3.4125 18.68125,3.9375 18.94375,4.33125 L19.90625,6.0375 L19.90625,6.0375 Z" id="Shape"></path>
                            <path d="M11.9,12.03125 L13.60625,12.99375 C13.7375,13.08125 13.9125,13.125 14.04375,13.125 C14.35,13.125 14.65625,12.95 14.7875,12.6875 C15.05,12.25 14.875,11.725 14.48125,11.50625 L12.775,10.5 C12.3375,10.2375 11.8125,10.4125 11.59375,10.80625 C11.33125,11.24375 11.4625,11.76875 11.9,12.03125 L11.9,12.03125 Z" id="Shape"></path>
                            <path d="M45.45625,13.125 C45.5875,13.125 45.7625,13.08125 45.89375,12.99375 L47.6,12.03125 C48.0375,11.76875 48.16875,11.24375 47.90625,10.85 C47.64375,10.4125 47.11875,10.28125 46.725,10.54375 L45.01875,11.50625 C44.58125,11.76875 44.45,12.29375 44.7125,12.6875 C44.8875,12.95 45.19375,13.125 45.45625,13.125 L45.45625,13.125 Z" id="Shape"></path>
                            <path d="M38.4125,6.34375 C38.54375,6.43125 38.71875,6.475 38.85,6.475 C39.15625,6.475 39.4625,6.3 39.59375,6.0375 L40.55625,4.33125 C40.81875,3.89375 40.64375,3.36875 40.25,3.15 C39.8125,2.8875 39.2875,3.0625 39.06875,3.45625 L38.10625,5.1625 C37.84375,5.6 37.975,6.125 38.4125,6.34375 L38.4125,6.34375 Z" id="Shape"></path>
                        </g>
                    </g>
                </g>
            </g>
        </g>
    </g>
</svg>